     
<svg

   xmlns="http://www.w3.org/2000/svg"
   version="2.0"
   viewBox="0 0 1000 500"
   width="1000"
   height="500"
   id="Starter Page">
<rect x="10" y="10" width="140" height="140" rx="5" ry="5" 
      style="fill:lightgrey">
   <set attributeName="fill" from="lightgrey" to="red" 
         begin="mouseover" end="mouseout"/>
</rect>
<text x="200" y="75" font-size="30">Move over me and click
   <set attributeName="font-size" from="30" to="35" 
         begin="mouseover" end="mouseout"/>
   <set attributeName="fill" from="black" to="red" 
         begin="mousedown" end="mouseup"/>
</text>
</svg> 
