<?xml version="1.0" encoding="UTF-8" standalone="no"?>

<svg

   xmlns="http://www.w3.org/2000/svg"
   version="2.0"
   viewBox="0 0 500 500"
   width="500"
   height="500"
   id="Starter Page">

<rect x="25" y="10" width="150" height="150" rx="15" ry="15" 
      fill="red">
   <set attributeName="fill" from="red" to="blue" 
         begin="mouseover" end="mouseout"/>
</rect>
<rect x="205" y="10" width="150" height="150" rx="15" ry="15" 
      fill="red">
   <set attributeName="fill" from="red" to="blue" 
         begin="mousedown" end="mouseup"/>
</rect>


</svg>
