<?xml version="1.0" encoding="UTF-8" standalone="no"?>
<!-- Created with Inkscape (http://www.inkscape.org/) -->

<svg
   xmlns:dc="http://purl.org/dc/elements/1.1/"
   xmlns:cc="http://creativecommons.org/ns#"
   xmlns:rdf="http://www.w3.org/1999/02/22-rdf-syntax-ns#"
   xmlns:svg="http://www.w3.org/2000/svg"
   xmlns="http://www.w3.org/2000/svg"
   xmlns:xlink="http://www.w3.org/1999/xlink"
   version="1.1"
   width="1000"
   height="600"
   id="svg2">
  <defs
     id="defs4">
    <linearGradient
       id="linearGradient3250">
      <stop
         id="stop3252"
         style="stop-color:#978e7f;stop-opacity:1"
         offset="0" />
      <stop
         id="stop3254"
         style="stop-color:#444444;stop-opacity:1"
         offset="1" />
    </linearGradient>
    <filter
       x="-0.15000001"
       y="-0.15000001"
       width="1.3"
       height="1.3"
       color-interpolation-filters="sRGB"
       id="filter3070">
      <feGaussianBlur
         id="feGaussianBlur3072"
         stdDeviation="0.5"
         result="result6" />
      <feComposite
         in2="result6"
         operator="in"
         in="result6"
         result="result91"
         id="feComposite3074" />
      <feBlend
         in2="result91"
         mode="multiply"
         in="result6"
         result="result2"
         id="feBlend3076" />
      <feGaussianBlur
         id="feGaussianBlur3078"
         stdDeviation="7"
         result="result3"
         in="result2" />
      <feComposite
         in2="result2"
         result="result92"
         id="feComposite3080" />
      <feComposite
         in2="result92"
         operator="in"
         in="result3"
         result="result5"
         id="feComposite3082" />
      <feGaussianBlur
         id="feGaussianBlur3084"
         stdDeviation="1"
         in="result5" />
      <feSpecularLighting
         id="feSpecularLighting3086"
         surfaceScale="2"
         specularConstant="1.5"
         specularExponent="100"
         result="result93">
        <fePointLight
           id="fePointLight3088"
           x="-5000"
           y="-5000"
           z="20000" />
      </feSpecularLighting>
      <feComposite
         in2="result5"
         operator="arithmetic"
         k1="1"
         k2="0"
         k3="0"
         k4="0"
         result="result93"
         id="feComposite3090" />
      <feComposite
         in2="result93"
         operator="arithmetic"
         k1="0"
         k2="0.1"
         k3="1"
         k4="0"
         in="result5"
         result="result94"
         id="feComposite3092" />
      <feBlend
         in2="result94"
         mode="multiply"
         id="feBlend3094" />
    </filter>
    <filter
       x="-0.15000001"
       y="-0.15000001"
       width="1.3"
       height="1.3"
       color-interpolation-filters="sRGB"
       id="filter3096">
      <feGaussianBlur
         id="feGaussianBlur3098"
         stdDeviation="0.5"
         result="result6" />
      <feComposite
         in2="result6"
         operator="in"
         in="result6"
         result="result91"
         id="feComposite3100" />
      <feBlend
         in2="result91"
         mode="multiply"
         in="result6"
         result="result2"
         id="feBlend3102" />
      <feGaussianBlur
         id="feGaussianBlur3104"
         stdDeviation="7"
         result="result3"
         in="result2" />
      <feComposite
         in2="result2"
         result="result92"
         id="feComposite3106" />
      <feComposite
         in2="result92"
         operator="in"
         in="result3"
         result="result5"
         id="feComposite3108" />
      <feGaussianBlur
         id="feGaussianBlur3110"
         stdDeviation="1"
         in="result5" />
      <feSpecularLighting
         id="feSpecularLighting3112"
         surfaceScale="2"
         specularConstant="1.5"
         specularExponent="100"
         result="result93">
        <fePointLight
           id="fePointLight3114"
           x="-5000"
           y="-5000"
           z="20000" />
      </feSpecularLighting>
      <feComposite
         in2="result5"
         operator="arithmetic"
         k1="1"
         k2="0"
         k3="0"
         k4="0"
         result="result93"
         id="feComposite3116" />
      <feComposite
         in2="result93"
         operator="arithmetic"
         k1="0"
         k2="0.1"
         k3="1"
         k4="0"
         in="result5"
         result="result94"
         id="feComposite3118" />
      <feBlend
         in2="result94"
         mode="multiply"
         id="feBlend3120" />
    </filter>
    <filter
       x="-0.15000001"
       y="-0.15000001"
       width="1.3"
       height="1.3"
       color-interpolation-filters="sRGB"
       id="filter3122">
      <feGaussianBlur
         id="feGaussianBlur3124"
         stdDeviation="0.5"
         result="result6" />
      <feComposite
         in2="result6"
         operator="in"
         in="result6"
         result="result91"
         id="feComposite3126" />
      <feBlend
         in2="result91"
         mode="multiply"
         in="result6"
         result="result2"
         id="feBlend3128" />
      <feGaussianBlur
         id="feGaussianBlur3130"
         stdDeviation="7"
         result="result3"
         in="result2" />
      <feComposite
         in2="result2"
         result="result92"
         id="feComposite3132" />
      <feComposite
         in2="result92"
         operator="in"
         in="result3"
         result="result5"
         id="feComposite3134" />
      <feGaussianBlur
         id="feGaussianBlur3136"
         stdDeviation="1"
         in="result5" />
      <feSpecularLighting
         id="feSpecularLighting3138"
         surfaceScale="2"
         specularConstant="1.5"
         specularExponent="100"
         result="result93">
        <fePointLight
           id="fePointLight3140"
           x="-5000"
           y="-5000"
           z="20000" />
      </feSpecularLighting>
      <feComposite
         in2="result5"
         operator="arithmetic"
         k1="1"
         k2="0"
         k3="0"
         k4="0"
         result="result93"
         id="feComposite3142" />
      <feComposite
         in2="result93"
         operator="arithmetic"
         k1="0"
         k2="0.1"
         k3="1"
         k4="0"
         in="result5"
         result="result94"
         id="feComposite3144" />
      <feBlend
         in2="result94"
         mode="multiply"
         id="feBlend3146" />
    </filter>
    <filter
       x="-0.15000001"
       y="-0.15000001"
       width="1.3"
       height="1.3"
       color-interpolation-filters="sRGB"
       id="filter3148">
      <feGaussianBlur
         id="feGaussianBlur3150"
         stdDeviation="0.5"
         result="result6" />
      <feComposite
         in2="result6"
         operator="in"
         in="result6"
         result="result91"
         id="feComposite3152" />
      <feBlend
         in2="result91"
         mode="multiply"
         in="result6"
         result="result2"
         id="feBlend3154" />
      <feGaussianBlur
         id="feGaussianBlur3156"
         stdDeviation="7"
         result="result3"
         in="result2" />
      <feComposite
         in2="result2"
         result="result92"
         id="feComposite3158" />
      <feComposite
         in2="result92"
         operator="in"
         in="result3"
         result="result5"
         id="feComposite3160" />
      <feGaussianBlur
         id="feGaussianBlur3162"
         stdDeviation="1"
         in="result5" />
      <feSpecularLighting
         id="feSpecularLighting3164"
         surfaceScale="2"
         specularConstant="1.5"
         specularExponent="100"
         result="result93">
        <fePointLight
           id="fePointLight3166"
           x="-5000"
           y="-5000"
           z="20000" />
      </feSpecularLighting>
      <feComposite
         in2="result5"
         operator="arithmetic"
         k1="1"
         k2="0"
         k3="0"
         k4="0"
         result="result93"
         id="feComposite3168" />
      <feComposite
         in2="result93"
         operator="arithmetic"
         k1="0"
         k2="0.1"
         k3="1"
         k4="0"
         in="result5"
         result="result94"
         id="feComposite3170" />
      <feBlend
         in2="result94"
         mode="multiply"
         id="feBlend3172" />
    </filter>
    <filter
       x="0"
       y="0"
       width="1"
       height="1"
       color-interpolation-filters="sRGB"
       id="filter3222">
      <feGaussianBlur
         id="feGaussianBlur3224"
         stdDeviation="2.3"
         in="SourceAlpha"
         result="result0" />
      <feMorphology
         id="feMorphology3226"
         in="SourceAlpha"
         radius="6.6"
         result="result1" />
      <feGaussianBlur
         id="feGaussianBlur3228"
         stdDeviation="8.9"
         in="result1" />
      <feColorMatrix
         id="feColorMatrix3230"
         values="1 0 0 0 0 0 1 0 0 0 0 0 1 0 0 0 0 0 0.3 0"
         result="result91" />
      <feComposite
         in2="result91"
         operator="out"
         in="result0"
         result="result2"
         id="feComposite3232" />
      <feGaussianBlur
         id="feGaussianBlur3234"
         stdDeviation="1.7"
         result="result4" />
      <feDiffuseLighting
         id="feDiffuseLighting3236"
         surfaceScale="10"
         result="result92">
        <feDistantLight
           id="feDistantLight3238"
           azimuth="225"
           elevation="45" />
      </feDiffuseLighting>
      <feBlend
         in2="SourceGraphic"
         mode="multiply"
         result="result93"
         id="feBlend3240" />
      <feComposite
         in2="SourceAlpha"
         operator="in"
         result="result3"
         id="feComposite3242" />
      <feSpecularLighting
         id="feSpecularLighting3244"
         in="result4"
         surfaceScale="5"
         specularExponent="17.89999962"
         result="result94">
        <feDistantLight
           id="feDistantLight3246"
           azimuth="225"
           elevation="45" />
      </feSpecularLighting>
      <feComposite
         in2="result3"
         operator="atop"
         id="feComposite3248" />
    </filter>
    <linearGradient
       x1="516.61279"
       y1="-0.32320622"
       x2="519.00452"
       y2="598.80414"
       id="linearGradient3256"
       xlink:href="#linearGradient3250"
       gradientUnits="userSpaceOnUse" />
    <filter
       x="0"
       y="0"
       width="1"
       height="1"
       color-interpolation-filters="sRGB"
       id="filter3331">
      <feGaussianBlur
         id="feGaussianBlur3333"
         stdDeviation="2.3"
         in="SourceAlpha"
         result="result0" />
      <feMorphology
         id="feMorphology3335"
         in="SourceAlpha"
         radius="6.6"
         result="result1" />
      <feGaussianBlur
         id="feGaussianBlur3337"
         stdDeviation="8.9"
         in="result1" />
      <feColorMatrix
         id="feColorMatrix3339"
         values="1 0 0 0 0 0 1 0 0 0 0 0 1 0 0 0 0 0 0.3 0"
         result="result91" />
      <feComposite
         in2="result91"
         operator="out"
         in="result0"
         result="result2"
         id="feComposite3341" />
      <feGaussianBlur
         id="feGaussianBlur3343"
         stdDeviation="1.7"
         result="result4" />
      <feDiffuseLighting
         id="feDiffuseLighting3345"
         surfaceScale="10"
         result="result92">
        <feDistantLight
           id="feDistantLight3347"
           azimuth="225"
           elevation="45" />
      </feDiffuseLighting>
      <feBlend
         in2="SourceGraphic"
         mode="multiply"
         result="result93"
         id="feBlend3349" />
      <feComposite
         in2="SourceAlpha"
         operator="in"
         result="result3"
         id="feComposite3351" />
      <feSpecularLighting
         id="feSpecularLighting3353"
         in="result4"
         surfaceScale="5"
         specularExponent="17.89999962"
         result="result94">
        <feDistantLight
           id="feDistantLight3355"
           azimuth="225"
           elevation="45" />
      </feSpecularLighting>
      <feComposite
         in2="result3"
         operator="atop"
         id="feComposite3357" />
    </filter>
    <filter
       color-interpolation-filters="sRGB"
       id="filter3359">
      <feGaussianBlur
         id="feGaussianBlur3361"
         stdDeviation="3"
         result="result10" />
      <feBlend
         in2="SourceGraphic"
         mode="multiply"
         in="result10"
         result="result5"
         id="feBlend3363" />
      <feComposite
         in2="SourceGraphic"
         operator="over"
         in="result5"
         result="fbSourceGraphic"
         id="feComposite3365" />
      <feGaussianBlur
         id="feGaussianBlur3367"
         result="result9"
         stdDeviation="5" />
      <feSpecularLighting
         id="feSpecularLighting3369"
         in="result9"
         result="result1"
         lighting-color="#ffffff"
         surfaceScale="1"
         specularConstant="2.20000005"
         specularExponent="45">
        <fePointLight
           id="fePointLight3371"
           x="-5000"
           y="-10000"
           z="20000" />
      </feSpecularLighting>
      <feComposite
         in2="fbSourceGraphic"
         operator="in"
         in="result1"
         result="result2"
         id="feComposite3373" />
      <feComposite
         in2="fbSourceGraphic"
         operator="arithmetic"
         k1="0"
         k2="2"
         k3="0.8"
         k4="0"
         in="result2"
         result="result4"
         id="feComposite3375" />
      <feBlend
         in2="result4"
         mode="multiply"
         in="result4"
         id="feBlend3377" />
    </filter>
    <filter
       color-interpolation-filters="sRGB"
       id="filter3359-6">
      <feGaussianBlur
         id="feGaussianBlur3361-1"
         stdDeviation="3"
         result="result10" />
      <feBlend
         in2="SourceGraphic"
         mode="multiply"
         in="result10"
         result="result5"
         id="feBlend3363-5" />
      <feComposite
         in2="SourceGraphic"
         operator="over"
         in="result5"
         result="fbSourceGraphic"
         id="feComposite3365-0" />
      <feGaussianBlur
         id="feGaussianBlur3367-6"
         result="result9"
         stdDeviation="5" />
      <feSpecularLighting
         id="feSpecularLighting3369-5"
         in="result9"
         result="result1"
         lighting-color="#ffffff"
         surfaceScale="1"
         specularConstant="2.20000005"
         specularExponent="45">
        <fePointLight
           id="fePointLight3371-0"
           x="-5000"
           y="-10000"
           z="20000" />
      </feSpecularLighting>
      <feComposite
         in2="fbSourceGraphic"
         operator="in"
         in="result1"
         result="result2"
         id="feComposite3373-8" />
      <feComposite
         in2="fbSourceGraphic"
         operator="arithmetic"
         k1="0"
         k2="2"
         k3="0.8"
         k4="0"
         in="result2"
         result="result4"
         id="feComposite3375-1" />
      <feBlend
         in2="result4"
         mode="multiply"
         in="result4"
         id="feBlend3377-2" />
    </filter>
    <filter
       x="0"
       y="0"
       width="1"
       height="1"
       color-interpolation-filters="sRGB"
       id="filter3331-2">
      <feGaussianBlur
         id="feGaussianBlur3333-6"
         stdDeviation="2.3"
         in="SourceAlpha"
         result="result0" />
      <feMorphology
         id="feMorphology3335-9"
         in="SourceAlpha"
         radius="6.6"
         result="result1" />
      <feGaussianBlur
         id="feGaussianBlur3337-1"
         stdDeviation="8.9"
         in="result1" />
      <feColorMatrix
         id="feColorMatrix3339-0"
         values="1 0 0 0 0 0 1 0 0 0 0 0 1 0 0 0 0 0 0.3 0"
         result="result91" />
      <feComposite
         in2="result91"
         operator="out"
         in="result0"
         result="result2"
         id="feComposite3341-4" />
      <feGaussianBlur
         id="feGaussianBlur3343-2"
         stdDeviation="1.7"
         result="result4" />
      <feDiffuseLighting
         id="feDiffuseLighting3345-7"
         surfaceScale="10"
         result="result92">
        <feDistantLight
           id="feDistantLight3347-4"
           azimuth="225"
           elevation="45" />
      </feDiffuseLighting>
      <feBlend
         in2="SourceGraphic"
         mode="multiply"
         result="result93"
         id="feBlend3349-0" />
      <feComposite
         in2="SourceAlpha"
         operator="in"
         result="result3"
         id="feComposite3351-3" />
      <feSpecularLighting
         id="feSpecularLighting3353-2"
         in="result4"
         surfaceScale="5"
         specularExponent="17.89999962"
         result="result94">
        <feDistantLight
           id="feDistantLight3355-8"
           azimuth="225"
           elevation="45" />
      </feSpecularLighting>
      <feComposite
         in2="result3"
         operator="atop"
         id="feComposite3357-0" />
    </filter>
    <filter
       color-interpolation-filters="sRGB"
       id="filter3359-4">
      <feGaussianBlur
         id="feGaussianBlur3361-2"
         stdDeviation="3"
         result="result10" />
      <feBlend
         in2="SourceGraphic"
         mode="multiply"
         in="result10"
         result="result5"
         id="feBlend3363-52" />
      <feComposite
         in2="SourceGraphic"
         operator="over"
         in="result5"
         result="fbSourceGraphic"
         id="feComposite3365-4" />
      <feGaussianBlur
         id="feGaussianBlur3367-4"
         result="result9"
         stdDeviation="5" />
      <feSpecularLighting
         id="feSpecularLighting3369-3"
         in="result9"
         result="result1"
         lighting-color="#ffffff"
         surfaceScale="1"
         specularConstant="2.20000005"
         specularExponent="45">
        <fePointLight
           id="fePointLight3371-8"
           x="-5000"
           y="-10000"
           z="20000" />
      </feSpecularLighting>
      <feComposite
         in2="fbSourceGraphic"
         operator="in"
         in="result1"
         result="result2"
         id="feComposite3373-6" />
      <feComposite
         in2="fbSourceGraphic"
         operator="arithmetic"
         k1="0"
         k2="2"
         k3="0.8"
         k4="0"
         in="result2"
         result="result4"
         id="feComposite3375-0" />
      <feBlend
         in2="result4"
         mode="multiply"
         in="result4"
         id="feBlend3377-8" />
    </filter>
    <filter
       color-interpolation-filters="sRGB"
       id="filter3359-1">
      <feGaussianBlur
         id="feGaussianBlur3361-7"
         stdDeviation="3"
         result="result10" />
      <feBlend
         in2="SourceGraphic"
         mode="multiply"
         in="result10"
         result="result5"
         id="feBlend3363-57" />
      <feComposite
         in2="SourceGraphic"
         operator="over"
         in="result5"
         result="fbSourceGraphic"
         id="feComposite3365-1" />
      <feGaussianBlur
         id="feGaussianBlur3367-69"
         result="result9"
         stdDeviation="5" />
      <feSpecularLighting
         id="feSpecularLighting3369-8"
         in="result9"
         result="result1"
         lighting-color="#ffffff"
         surfaceScale="1"
         specularConstant="2.20000005"
         specularExponent="45">
        <fePointLight
           id="fePointLight3371-1"
           x="-5000"
           y="-10000"
           z="20000" />
      </feSpecularLighting>
      <feComposite
         in2="fbSourceGraphic"
         operator="in"
         in="result1"
         result="result2"
         id="feComposite3373-3" />
      <feComposite
         in2="fbSourceGraphic"
         operator="arithmetic"
         k1="0"
         k2="2"
         k3="0.8"
         k4="0"
         in="result2"
         result="result4"
         id="feComposite3375-3" />
      <feBlend
         in2="result4"
         mode="multiply"
         in="result4"
         id="feBlend3377-3" />
    </filter>
    <filter
       color-interpolation-filters="sRGB"
       id="filter3359-1-0">
      <feGaussianBlur
         id="feGaussianBlur3361-7-4"
         stdDeviation="3"
         result="result10" />
      <feBlend
         in2="SourceGraphic"
         mode="multiply"
         in="result10"
         result="result5"
         id="feBlend3363-57-8" />
      <feComposite
         in2="SourceGraphic"
         operator="over"
         in="result5"
         result="fbSourceGraphic"
         id="feComposite3365-1-4" />
      <feGaussianBlur
         id="feGaussianBlur3367-69-8"
         result="result9"
         stdDeviation="5" />
      <feSpecularLighting
         id="feSpecularLighting3369-8-1"
         in="result9"
         result="result1"
         lighting-color="#ffffff"
         surfaceScale="1"
         specularConstant="2.20000005"
         specularExponent="45">
        <fePointLight
           id="fePointLight3371-1-6"
           x="-5000"
           y="-10000"
           z="20000" />
      </feSpecularLighting>
      <feComposite
         in2="fbSourceGraphic"
         operator="in"
         in="result1"
         result="result2"
         id="feComposite3373-3-8" />
      <feComposite
         in2="fbSourceGraphic"
         operator="arithmetic"
         k1="0"
         k2="2"
         k3="0.8"
         k4="0"
         in="result2"
         result="result4"
         id="feComposite3375-3-5" />
      <feBlend
         in2="result4"
         mode="multiply"
         in="result4"
         id="feBlend3377-3-2" />
    </filter>
    <filter
       color-interpolation-filters="sRGB"
       id="filter3359-1-9">
      <feGaussianBlur
         id="feGaussianBlur3361-7-6"
         stdDeviation="3"
         result="result10" />
      <feBlend
         in2="SourceGraphic"
         mode="multiply"
         in="result10"
         result="result5"
         id="feBlend3363-57-0" />
      <feComposite
         in2="SourceGraphic"
         operator="over"
         in="result5"
         result="fbSourceGraphic"
         id="feComposite3365-1-6" />
      <feGaussianBlur
         id="feGaussianBlur3367-69-4"
         result="result9"
         stdDeviation="5" />
      <feSpecularLighting
         id="feSpecularLighting3369-8-9"
         in="result9"
         result="result1"
         lighting-color="#ffffff"
         surfaceScale="1"
         specularConstant="2.20000005"
         specularExponent="45">
        <fePointLight
           id="fePointLight3371-1-9"
           x="-5000"
           y="-10000"
           z="20000" />
      </feSpecularLighting>
      <feComposite
         in2="fbSourceGraphic"
         operator="in"
         in="result1"
         result="result2"
         id="feComposite3373-3-0" />
      <feComposite
         in2="fbSourceGraphic"
         operator="arithmetic"
         k1="0"
         k2="2"
         k3="0.8"
         k4="0"
         in="result2"
         result="result4"
         id="feComposite3375-3-8" />
      <feBlend
         in2="result4"
         mode="multiply"
         in="result4"
         id="feBlend3377-3-9" />
    </filter>
    <filter
       color-interpolation-filters="sRGB"
       id="filter3359-48">
      <feGaussianBlur
         id="feGaussianBlur3361-9"
         stdDeviation="3"
         result="result10" />
      <feBlend
         in2="SourceGraphic"
         mode="multiply"
         in="result10"
         result="result5"
         id="feBlend3363-6" />
      <feComposite
         in2="SourceGraphic"
         operator="over"
         in="result5"
         result="fbSourceGraphic"
         id="feComposite3365-7" />
      <feGaussianBlur
         id="feGaussianBlur3367-7"
         result="result9"
         stdDeviation="5" />
      <feSpecularLighting
         id="feSpecularLighting3369-37"
         in="result9"
         result="result1"
         lighting-color="#ffffff"
         surfaceScale="1"
         specularConstant="2.20000005"
         specularExponent="45">
        <fePointLight
           id="fePointLight3371-12"
           x="-5000"
           y="-10000"
           z="20000" />
      </feSpecularLighting>
      <feComposite
         in2="fbSourceGraphic"
         operator="in"
         in="result1"
         result="result2"
         id="feComposite3373-2" />
      <feComposite
         in2="fbSourceGraphic"
         operator="arithmetic"
         k1="0"
         k2="2"
         k3="0.8"
         k4="0"
         in="result2"
         result="result4"
         id="feComposite3375-15" />
      <feBlend
         in2="result4"
         mode="multiply"
         in="result4"
         id="feBlend3377-0" />
    </filter>
    <filter
       x="0"
       y="0"
       width="1"
       height="1"
       color-interpolation-filters="sRGB"
       id="filter3331-8">
      <feGaussianBlur
         id="feGaussianBlur3333-5"
         stdDeviation="2.3"
         in="SourceAlpha"
         result="result0" />
      <feMorphology
         id="feMorphology3335-92"
         in="SourceAlpha"
         radius="6.6"
         result="result1" />
      <feGaussianBlur
         id="feGaussianBlur3337-7"
         stdDeviation="8.9"
         in="result1" />
      <feColorMatrix
         id="feColorMatrix3339-3"
         values="1 0 0 0 0 0 1 0 0 0 0 0 1 0 0 0 0 0 0.3 0"
         result="result91" />
      <feComposite
         in2="result91"
         operator="out"
         in="result0"
         result="result2"
         id="feComposite3341-6" />
      <feGaussianBlur
         id="feGaussianBlur3343-4"
         stdDeviation="1.7"
         result="result4" />
      <feDiffuseLighting
         id="feDiffuseLighting3345-79"
         surfaceScale="10"
         result="result92">
        <feDistantLight
           id="feDistantLight3347-7"
           azimuth="225"
           elevation="45" />
      </feDiffuseLighting>
      <feBlend
         in2="SourceGraphic"
         mode="multiply"
         result="result93"
         id="feBlend3349-2" />
      <feComposite
         in2="SourceAlpha"
         operator="in"
         result="result3"
         id="feComposite3351-2" />
      <feSpecularLighting
         id="feSpecularLighting3353-1"
         in="result4"
         surfaceScale="5"
         specularExponent="17.89999962"
         result="result94">
        <feDistantLight
           id="feDistantLight3355-6"
           azimuth="225"
           elevation="45" />
      </feSpecularLighting>
      <feComposite
         in2="result3"
         operator="atop"
         id="feComposite3357-3" />
    </filter>
    <filter
       color-interpolation-filters="sRGB"
       id="filter3359-0">
      <feGaussianBlur
         id="feGaussianBlur3361-21"
         stdDeviation="3"
         result="result10" />
      <feBlend
         in2="SourceGraphic"
         mode="multiply"
         in="result10"
         result="result5"
         id="feBlend3363-56" />
      <feComposite
         in2="SourceGraphic"
         operator="over"
         in="result5"
         result="fbSourceGraphic"
         id="feComposite3365-5" />
      <feGaussianBlur
         id="feGaussianBlur3367-0"
         result="result9"
         stdDeviation="5" />
      <feSpecularLighting
         id="feSpecularLighting3369-0"
         in="result9"
         result="result1"
         lighting-color="#ffffff"
         surfaceScale="1"
         specularConstant="2.20000005"
         specularExponent="45">
        <fePointLight
           id="fePointLight3371-3"
           x="-5000"
           y="-10000"
           z="20000" />
      </feSpecularLighting>
      <feComposite
         in2="fbSourceGraphic"
         operator="in"
         in="result1"
         result="result2"
         id="feComposite3373-4" />
      <feComposite
         in2="fbSourceGraphic"
         operator="arithmetic"
         k1="0"
         k2="2"
         k3="0.8"
         k4="0"
         in="result2"
         result="result4"
         id="feComposite3375-6" />
      <feBlend
         in2="result4"
         mode="multiply"
         in="result4"
         id="feBlend3377-6" />
    </filter>
    <filter
       x="-0.15000001"
       y="-0.15000001"
       width="1.3"
       height="1.3"
       color-interpolation-filters="sRGB"
       id="filter3070-2">
      <feGaussianBlur
         id="feGaussianBlur3072-9"
         stdDeviation="0.5"
         result="result6" />
      <feComposite
         in2="result6"
         operator="in"
         in="result6"
         result="result91"
         id="feComposite3074-7" />
      <feBlend
         in2="result91"
         mode="multiply"
         in="result6"
         result="result2"
         id="feBlend3076-3" />
      <feGaussianBlur
         id="feGaussianBlur3078-8"
         stdDeviation="7"
         result="result3"
         in="result2" />
      <feComposite
         in2="result2"
         result="result92"
         id="feComposite3080-0" />
      <feComposite
         in2="result92"
         operator="in"
         in="result3"
         result="result5"
         id="feComposite3082-9" />
      <feGaussianBlur
         id="feGaussianBlur3084-2"
         stdDeviation="1"
         in="result5" />
      <feSpecularLighting
         id="feSpecularLighting3086-3"
         surfaceScale="2"
         specularConstant="1.5"
         specularExponent="100"
         result="result93">
        <fePointLight
           id="fePointLight3088-1"
           x="-5000"
           y="-5000"
           z="20000" />
      </feSpecularLighting>
      <feComposite
         in2="result5"
         operator="arithmetic"
         k1="1"
         k2="0"
         k3="0"
         k4="0"
         result="result93"
         id="feComposite3090-8" />
      <feComposite
         in2="result93"
         operator="arithmetic"
         k1="0"
         k2="0.1"
         k3="1"
         k4="0"
         in="result5"
         result="result94"
         id="feComposite3092-7" />
      <feBlend
         in2="result94"
         mode="multiply"
         id="feBlend3094-4" />
    </filter>
    <filter
       x="-0.15000001"
       y="-0.15000001"
       width="1.3"
       height="1.3"
       color-interpolation-filters="sRGB"
       id="filter3096-1">
      <feGaussianBlur
         id="feGaussianBlur3098-6"
         stdDeviation="0.5"
         result="result6" />
      <feComposite
         in2="result6"
         operator="in"
         in="result6"
         result="result91"
         id="feComposite3100-3" />
      <feBlend
         in2="result91"
         mode="multiply"
         in="result6"
         result="result2"
         id="feBlend3102-8" />
      <feGaussianBlur
         id="feGaussianBlur3104-5"
         stdDeviation="7"
         result="result3"
         in="result2" />
      <feComposite
         in2="result2"
         result="result92"
         id="feComposite3106-5" />
      <feComposite
         in2="result92"
         operator="in"
         in="result3"
         result="result5"
         id="feComposite3108-0" />
      <feGaussianBlur
         id="feGaussianBlur3110-1"
         stdDeviation="1"
         in="result5" />
      <feSpecularLighting
         id="feSpecularLighting3112-2"
         surfaceScale="2"
         specularConstant="1.5"
         specularExponent="100"
         result="result93">
        <fePointLight
           id="fePointLight3114-6"
           x="-5000"
           y="-5000"
           z="20000" />
      </feSpecularLighting>
      <feComposite
         in2="result5"
         operator="arithmetic"
         k1="1"
         k2="0"
         k3="0"
         k4="0"
         result="result93"
         id="feComposite3116-4" />
      <feComposite
         in2="result93"
         operator="arithmetic"
         k1="0"
         k2="0.1"
         k3="1"
         k4="0"
         in="result5"
         result="result94"
         id="feComposite3118-8" />
      <feBlend
         in2="result94"
         mode="multiply"
         id="feBlend3120-5" />
    </filter>
    <filter
       color-interpolation-filters="sRGB"
       id="filter3359-487">
      <feGaussianBlur
         id="feGaussianBlur3361-17"
         stdDeviation="3"
         result="result10" />
      <feBlend
         in2="SourceGraphic"
         mode="multiply"
         in="result10"
         result="result5"
         id="feBlend3363-2" />
      <feComposite
         in2="SourceGraphic"
         operator="over"
         in="result5"
         result="fbSourceGraphic"
         id="feComposite3365-72" />
      <feGaussianBlur
         id="feGaussianBlur3367-2"
         result="result9"
         stdDeviation="5" />
      <feSpecularLighting
         id="feSpecularLighting3369-6"
         in="result9"
         result="result1"
         lighting-color="#ffffff"
         surfaceScale="1"
         specularConstant="2.20000005"
         specularExponent="45">
        <fePointLight
           id="fePointLight3371-10"
           x="-5000"
           y="-10000"
           z="20000" />
      </feSpecularLighting>
      <feComposite
         in2="fbSourceGraphic"
         operator="in"
         in="result1"
         result="result2"
         id="feComposite3373-61" />
      <feComposite
         in2="fbSourceGraphic"
         operator="arithmetic"
         k1="0"
         k2="2"
         k3="0.8"
         k4="0"
         in="result2"
         result="result4"
         id="feComposite3375-5" />
      <feBlend
         in2="result4"
         mode="multiply"
         in="result4"
         id="feBlend3377-9" />
    </filter>
    <filter
       color-interpolation-filters="sRGB"
       id="filter3359-487-9">
      <feGaussianBlur
         id="feGaussianBlur3361-17-1"
         stdDeviation="3"
         result="result10" />
      <feBlend
         in2="SourceGraphic"
         mode="multiply"
         in="result10"
         result="result5"
         id="feBlend3363-2-7" />
      <feComposite
         in2="SourceGraphic"
         operator="over"
         in="result5"
         result="fbSourceGraphic"
         id="feComposite3365-72-7" />
      <feGaussianBlur
         id="feGaussianBlur3367-2-1"
         result="result9"
         stdDeviation="5" />
      <feSpecularLighting
         id="feSpecularLighting3369-6-1"
         in="result9"
         result="result1"
         lighting-color="#ffffff"
         surfaceScale="1"
         specularConstant="2.20000005"
         specularExponent="45">
        <fePointLight
           id="fePointLight3371-10-5"
           x="-5000"
           y="-10000"
           z="20000" />
      </feSpecularLighting>
      <feComposite
         in2="fbSourceGraphic"
         operator="in"
         in="result1"
         result="result2"
         id="feComposite3373-61-9" />
      <feComposite
         in2="fbSourceGraphic"
         operator="arithmetic"
         k1="0"
         k2="2"
         k3="0.8"
         k4="0"
         in="result2"
         result="result4"
         id="feComposite3375-5-7" />
      <feBlend
         in2="result4"
         mode="multiply"
         in="result4"
         id="feBlend3377-9-7" />
    </filter>
    <filter
       color-interpolation-filters="sRGB"
       id="filter3476">
      <feGaussianBlur
         id="feGaussianBlur3478"
         stdDeviation="3"
         result="result10" />
      <feBlend
         in2="SourceGraphic"
         mode="multiply"
         in="result10"
         result="result5"
         id="feBlend3480" />
      <feComposite
         in2="SourceGraphic"
         operator="over"
         in="result5"
         result="fbSourceGraphic"
         id="feComposite3482" />
      <feGaussianBlur
         id="feGaussianBlur3484"
         result="result9"
         stdDeviation="5" />
      <feSpecularLighting
         id="feSpecularLighting3486"
         in="result9"
         result="result1"
         lighting-color="#ffffff"
         surfaceScale="1"
         specularConstant="2.20000005"
         specularExponent="45">
        <fePointLight
           id="fePointLight3488"
           x="-5000"
           y="-10000"
           z="20000" />
      </feSpecularLighting>
      <feComposite
         in2="fbSourceGraphic"
         operator="in"
         in="result1"
         result="result2"
         id="feComposite3490" />
      <feComposite
         in2="fbSourceGraphic"
         operator="arithmetic"
         k1="0"
         k2="2"
         k3="0.8"
         k4="0"
         in="result2"
         result="result4"
         id="feComposite3492" />
      <feBlend
         in2="result4"
         mode="multiply"
         in="result4"
         id="feBlend3494" />
    </filter>
    <filter
       color-interpolation-filters="sRGB"
       id="filter3500">
      <feGaussianBlur
         id="feGaussianBlur3502"
         stdDeviation="3"
         result="result10" />
      <feBlend
         in2="SourceGraphic"
         mode="multiply"
         in="result10"
         result="result5"
         id="feBlend3504" />
      <feComposite
         in2="SourceGraphic"
         operator="over"
         in="result5"
         result="fbSourceGraphic"
         id="feComposite3506" />
      <feGaussianBlur
         id="feGaussianBlur3508"
         result="result9"
         stdDeviation="5" />
      <feSpecularLighting
         id="feSpecularLighting3510"
         in="result9"
         result="result1"
         lighting-color="#ffffff"
         surfaceScale="1"
         specularConstant="2.20000005"
         specularExponent="45">
        <fePointLight
           id="fePointLight3512"
           x="-5000"
           y="-10000"
           z="20000" />
      </feSpecularLighting>
      <feComposite
         in2="fbSourceGraphic"
         operator="in"
         in="result1"
         result="result2"
         id="feComposite3514" />
      <feComposite
         in2="fbSourceGraphic"
         operator="arithmetic"
         k1="0"
         k2="2"
         k3="0.8"
         k4="0"
         in="result2"
         result="result4"
         id="feComposite3516" />
      <feBlend
         in2="result4"
         mode="multiply"
         in="result4"
         result="fbSourceGraphic"
         id="feBlend3518" />
      <feColorMatrix
         result="fbSourceGraphicAlpha"
         in="fbSourceGraphic"
         values="0 0 0 -1 0 0 0 0 -1 0 0 0 0 -1 0 0 0 0 1 0"
         id="feColorMatrix3520" />
      <feGaussianBlur
         id="feGaussianBlur3522"
         stdDeviation="3"
         result="result10"
         in="fbSourceGraphic" />
      <feBlend
         in2="fbSourceGraphic"
         mode="multiply"
         in="result10"
         result="result5"
         id="feBlend3524" />
      <feComposite
         in2="fbSourceGraphic"
         operator="over"
         in="result5"
         result="fbSourceGraphic"
         id="feComposite3526" />
      <feGaussianBlur
         id="feGaussianBlur3528"
         result="result9"
         stdDeviation="5" />
      <feSpecularLighting
         id="feSpecularLighting3530"
         in="result9"
         result="result1"
         lighting-color="#ffffff"
         surfaceScale="1"
         specularConstant="2.20000005"
         specularExponent="45">
        <fePointLight
           id="fePointLight3532"
           x="-5000"
           y="-10000"
           z="20000" />
      </feSpecularLighting>
      <feComposite
         in2="fbSourceGraphic"
         operator="in"
         in="result1"
         result="result2"
         id="feComposite3534" />
      <feComposite
         in2="fbSourceGraphic"
         operator="arithmetic"
         k1="0"
         k2="2"
         k3="0.8"
         k4="0"
         in="result2"
         result="result4"
         id="feComposite3536" />
      <feBlend
         in2="result4"
         mode="multiply"
         in="result4"
         result="fbSourceGraphic"
         id="feBlend3538" />
      <feColorMatrix
         result="fbSourceGraphicAlpha"
         in="fbSourceGraphic"
         values="0 0 0 -1 0 0 0 0 -1 0 0 0 0 -1 0 0 0 0 1 0"
         id="feColorMatrix3540" />
      <feGaussianBlur
         id="feGaussianBlur3542"
         stdDeviation="3"
         result="result10"
         in="fbSourceGraphic" />
      <feBlend
         in2="fbSourceGraphic"
         mode="multiply"
         in="result10"
         result="result5"
         id="feBlend3544" />
      <feComposite
         in2="fbSourceGraphic"
         operator="over"
         in="result5"
         result="fbSourceGraphic"
         id="feComposite3546" />
      <feGaussianBlur
         id="feGaussianBlur3548"
         result="result9"
         stdDeviation="5" />
      <feSpecularLighting
         id="feSpecularLighting3550"
         in="result9"
         result="result1"
         lighting-color="#ffffff"
         surfaceScale="1"
         specularConstant="2.20000005"
         specularExponent="45">
        <fePointLight
           id="fePointLight3552"
           x="-5000"
           y="-10000"
           z="20000" />
      </feSpecularLighting>
      <feComposite
         in2="fbSourceGraphic"
         operator="in"
         in="result1"
         result="result2"
         id="feComposite3554" />
      <feComposite
         in2="fbSourceGraphic"
         operator="arithmetic"
         k1="0"
         k2="2"
         k3="0.8"
         k4="0"
         in="result2"
         result="result4"
         id="feComposite3556" />
      <feBlend
         in2="result4"
         mode="multiply"
         in="result4"
         id="feBlend3558" />
    </filter>
    <filter
       color-interpolation-filters="sRGB"
       id="filter3476-9">
      <feGaussianBlur
         id="feGaussianBlur3478-6"
         stdDeviation="3"
         result="result10" />
      <feBlend
         in2="SourceGraphic"
         mode="multiply"
         in="result10"
         result="result5"
         id="feBlend3480-0" />
      <feComposite
         in2="SourceGraphic"
         operator="over"
         in="result5"
         result="fbSourceGraphic"
         id="feComposite3482-6" />
      <feGaussianBlur
         id="feGaussianBlur3484-4"
         result="result9"
         stdDeviation="5" />
      <feSpecularLighting
         id="feSpecularLighting3486-9"
         in="result9"
         result="result1"
         lighting-color="#ffffff"
         surfaceScale="1"
         specularConstant="2.20000005"
         specularExponent="45">
        <fePointLight
           id="fePointLight3488-9"
           x="-5000"
           y="-10000"
           z="20000" />
      </feSpecularLighting>
      <feComposite
         in2="fbSourceGraphic"
         operator="in"
         in="result1"
         result="result2"
         id="feComposite3490-0" />
      <feComposite
         in2="fbSourceGraphic"
         operator="arithmetic"
         k1="0"
         k2="2"
         k3="0.8"
         k4="0"
         in="result2"
         result="result4"
         id="feComposite3492-8" />
      <feBlend
         in2="result4"
         mode="multiply"
         in="result4"
         id="feBlend3494-9" />
    </filter>
    <filter
       x="-0.15000001"
       y="-0.15000001"
       width="1.3"
       height="1.3"
       color-interpolation-filters="sRGB"
       id="filter3070-2-1">
      <feGaussianBlur
         id="feGaussianBlur3072-9-9"
         stdDeviation="0.5"
         result="result6" />
      <feComposite
         in2="result6"
         operator="in"
         in="result6"
         result="result91"
         id="feComposite3074-7-5" />
      <feBlend
         in2="result91"
         mode="multiply"
         in="result6"
         result="result2"
         id="feBlend3076-3-7" />
      <feGaussianBlur
         id="feGaussianBlur3078-8-4"
         stdDeviation="7"
         result="result3"
         in="result2" />
      <feComposite
         in2="result2"
         result="result92"
         id="feComposite3080-0-1" />
      <feComposite
         in2="result92"
         operator="in"
         in="result3"
         result="result5"
         id="feComposite3082-9-2" />
      <feGaussianBlur
         id="feGaussianBlur3084-2-2"
         stdDeviation="1"
         in="result5" />
      <feSpecularLighting
         id="feSpecularLighting3086-3-1"
         surfaceScale="2"
         specularConstant="1.5"
         specularExponent="100"
         result="result93">
        <fePointLight
           id="fePointLight3088-1-6"
           x="-5000"
           y="-5000"
           z="20000" />
      </feSpecularLighting>
      <feComposite
         in2="result5"
         operator="arithmetic"
         k1="1"
         k2="0"
         k3="0"
         k4="0"
         result="result93"
         id="feComposite3090-8-2" />
      <feComposite
         in2="result93"
         operator="arithmetic"
         k1="0"
         k2="0.1"
         k3="1"
         k4="0"
         in="result5"
         result="result94"
         id="feComposite3092-7-0" />
      <feBlend
         in2="result94"
         mode="multiply"
         id="feBlend3094-4-2" />
    </filter>
    <filter
       x="-0.15000001"
       y="-0.15000001"
       width="1.3"
       height="1.3"
       color-interpolation-filters="sRGB"
       id="filter3096-1-2">
      <feGaussianBlur
         id="feGaussianBlur3098-6-9"
         stdDeviation="0.5"
         result="result6" />
      <feComposite
         in2="result6"
         operator="in"
         in="result6"
         result="result91"
         id="feComposite3100-3-7" />
      <feBlend
         in2="result91"
         mode="multiply"
         in="result6"
         result="result2"
         id="feBlend3102-8-4" />
      <feGaussianBlur
         id="feGaussianBlur3104-5-3"
         stdDeviation="7"
         result="result3"
         in="result2" />
      <feComposite
         in2="result2"
         result="result92"
         id="feComposite3106-5-5" />
      <feComposite
         in2="result92"
         operator="in"
         in="result3"
         result="result5"
         id="feComposite3108-0-6" />
      <feGaussianBlur
         id="feGaussianBlur3110-1-1"
         stdDeviation="1"
         in="result5" />
      <feSpecularLighting
         id="feSpecularLighting3112-2-4"
         surfaceScale="2"
         specularConstant="1.5"
         specularExponent="100"
         result="result93">
        <fePointLight
           id="fePointLight3114-6-0"
           x="-5000"
           y="-5000"
           z="20000" />
      </feSpecularLighting>
      <feComposite
         in2="result5"
         operator="arithmetic"
         k1="1"
         k2="0"
         k3="0"
         k4="0"
         result="result93"
         id="feComposite3116-4-3" />
      <feComposite
         in2="result93"
         operator="arithmetic"
         k1="0"
         k2="0.1"
         k3="1"
         k4="0"
         in="result5"
         result="result94"
         id="feComposite3118-8-1" />
      <feBlend
         in2="result94"
         mode="multiply"
         id="feBlend3120-5-2" />
    </filter>
  </defs>
  <metadata
     id="metadata7">
    <rdf:RDF>
      <cc:Work
         rdf:about="">
        <dc:format>image/svg+xml</dc:format>
        <dc:type
           rdf:resource="http://purl.org/dc/dcmitype/StillImage" />
        <dc:title></dc:title>
      </cc:Work>
    </rdf:RDF>
  </metadata>
  <g
     transform="translate(0,-452.36218)"
     id="layer1">
    <rect
       width="1004.5249"
       height="602.7149"
       x="-1.195863"
       y="-0.32320622"
       transform="translate(0,452.36218)"
       id="rect2985"
       style="color:#000000;fill:url(#linearGradient3256);fill-opacity:1;fill-rule:nonzero;stroke:none;stroke-width:4;marker:none;visibility:visible;display:inline;overflow:visible;enable-background:accumulate" />
    <g
       id="gear1">
      <g
         transform="matrix(-2.3524034,0.78862894,-0.78862894,-2.3524034,222.52746,573.56175)"
         id="g3006"
         style="fill:#504416;filter:url(#filter3122)">
        <path
           d="m 30.214,-1.241 1.107,-0.046 0.485,0.037 1.606,0.399 0,1.702 L 31.806,1.25 31.321,1.287 30.214,1.241 30.036,3.5 31.137,3.629 31.61,3.741 33.133,4.386 32.867,6.067 31.219,6.21 30.734,6.171 29.648,5.953 l -0.529,2.203 1.067,0.299 0.45,0.185 1.403,0.875 -0.526,1.619 -1.649,-0.117 -0.474,-0.114 -1.038,-0.386 -0.868,2.094 1.007,0.462 0.416,0.253 1.249,1.084 -0.772,1.517 -1.612,-0.374 -0.449,-0.187 -0.966,-0.543 -1.184,1.932 0.923,0.614 0.37,0.315 1.065,1.266 -1.001,1.377 -1.533,-0.621 -0.414,-0.255 -0.869,-0.687 -1.472,1.723 0.815,0.75 0.317,0.37 0.853,1.417 -1.203,1.203 -1.417,-0.853 -0.37,-0.317 -0.75,-0.815 -1.723,1.472 0.687,0.869 0.255,0.414 0.621,1.533 -1.377,1.001 -1.266,-1.065 -0.315,-0.37 -0.614,-0.923 -1.932,1.184 0.543,0.966 0.187,0.449 0.374,1.612 -1.517,0.772 -1.084,-1.249 -0.253,-0.416 -0.462,-1.007 -2.094,0.868 0.386,1.038 0.114,0.474 0.117,1.649 L 9.515,32.039 8.64,30.636 8.455,30.186 8.156,29.119 5.953,29.648 6.171,30.734 6.21,31.219 6.067,32.867 4.386,33.133 3.741,31.61 3.629,31.137 3.5,30.036 l -2.259,0.178 0.046,1.107 -0.037,0.485 -0.399,1.606 -1.702,0 -0.399,-1.606 -0.037,-0.485 0.046,-1.107 -2.259,-0.178 -0.129,1.101 -0.112,0.473 -0.645,1.523 -1.681,-0.266 -0.143,-1.648 0.039,-0.485 0.218,-1.086 -2.203,-0.529 -0.299,1.067 -0.185,0.45 -0.875,1.403 -1.619,-0.526 0.117,-1.649 0.114,-0.474 0.386,-1.038 -2.094,-0.868 -0.462,1.007 -0.253,0.416 -1.084,1.249 -1.517,-0.772 0.374,-1.612 0.187,-0.449 0.543,-0.966 -1.932,-1.184 -0.614,0.923 -0.315,0.37 -1.266,1.065 -1.377,-1.001 0.621,-1.533 0.255,-0.414 0.687,-0.869 -1.723,-1.472 -0.75,0.815 -0.37,0.317 -1.417,0.853 -1.203,-1.203 0.853,-1.417 0.317,-0.37 0.815,-0.75 -1.472,-1.723 -0.869,0.687 -0.414,0.255 -1.533,0.621 -1.001,-1.377 1.065,-1.266 0.37,-0.315 0.923,-0.614 -1.184,-1.932 -0.966,0.543 -0.449,0.187 -1.612,0.374 -0.772,-1.517 1.249,-1.084 0.416,-0.253 1.007,-0.462 -0.868,-2.094 -1.038,0.386 -0.474,0.114 -1.649,0.117 -0.526,-1.619 1.403,-0.875 0.45,-0.185 1.067,-0.299 -0.529,-2.203 -1.086,0.218 -0.485,0.039 -1.648,-0.143 -0.266,-1.681 1.523,-0.645 0.473,-0.112 1.101,-0.129 -0.178,-2.259 -1.107,0.046 -0.485,-0.037 -1.606,-0.399 0,-1.702 1.606,-0.399 0.485,-0.037 1.107,0.046 0.178,-2.259 -1.101,-0.129 -0.473,-0.112 -1.523,-0.645 0.266,-1.681 1.648,-0.143 0.485,0.039 1.086,0.218 0.529,-2.203 -1.067,-0.299 -0.45,-0.185 -1.403,-0.875 0.526,-1.619 1.649,0.117 0.474,0.114 1.038,0.386 0.868,-2.094 -1.007,-0.462 -0.416,-0.253 -1.249,-1.084 0.772,-1.517 1.612,0.374 0.449,0.187 0.966,0.543 1.184,-1.932 -0.923,-0.614 -0.37,-0.315 -1.065,-1.266 1.001,-1.377 1.533,0.621 0.414,0.255 0.869,0.687 1.472,-1.723 -0.815,-0.75 -0.317,-0.37 -0.853,-1.417 1.203,-1.203 1.417,0.853 0.37,0.317 0.75,0.815 1.723,-1.472 -0.687,-0.869 -0.255,-0.414 -0.621,-1.533 1.377,-1.001 1.266,1.065 0.315,0.37 0.614,0.923 1.932,-1.184 -0.543,-0.966 -0.187,-0.449 -0.374,-1.612 1.517,-0.772 1.084,1.249 0.253,0.416 0.462,1.007 2.094,-0.868 -0.386,-1.038 -0.114,-0.474 -0.117,-1.649 1.619,-0.526 0.875,1.403 0.185,0.45 0.299,1.067 2.203,-0.529 -0.218,-1.086 -0.039,-0.485 0.143,-1.648 1.681,-0.266 0.645,1.523 0.112,0.473 0.129,1.101 2.259,-0.178 -0.046,-1.107 0.037,-0.485 0.399,-1.606 1.702,0 0.399,1.606 0.037,0.485 -0.046,1.107 2.259,0.178 0.129,-1.101 0.112,-0.473 0.645,-1.523 1.681,0.266 0.143,1.648 -0.039,0.485 -0.218,1.086 2.203,0.529 0.299,-1.067 0.185,-0.45 0.875,-1.403 1.619,0.526 -0.117,1.649 -0.114,0.474 -0.386,1.038 2.094,0.868 0.462,-1.007 0.253,-0.416 1.084,-1.249 1.517,0.772 -0.374,1.612 -0.187,0.449 -0.543,0.966 1.932,1.184 0.614,-0.923 0.315,-0.37 1.266,-1.065 1.377,1.001 -0.621,1.533 -0.255,0.414 -0.687,0.869 1.723,1.472 0.75,-0.815 0.37,-0.317 1.417,-0.853 1.203,1.203 -0.853,1.417 -0.317,0.37 -0.815,0.75 1.472,1.723 0.869,-0.687 0.414,-0.255 1.533,-0.621 1.001,1.377 -1.065,1.266 -0.37,0.315 -0.923,0.614 1.184,1.932 0.966,-0.543 0.449,-0.187 1.612,-0.374 0.772,1.517 -1.249,1.084 -0.416,0.253 -1.007,0.462 0.868,2.094 1.038,-0.386 0.474,-0.114 1.649,-0.117 0.526,1.619 -1.403,0.875 -0.45,0.185 -1.067,0.299 0.529,2.203 1.086,-0.218 0.485,-0.039 1.648,0.143 0.266,1.681 -1.523,0.645 -0.473,0.112 -1.101,0.129 z"
           id="path3008"
           style="fill:#504416;stroke:#000000" />
      </g>
      <animateTransform
         id="animateTransform104"
         repeatCount="indefinite"
         dur="5s"
         begin="1s"
         to="360,230,575"
         from="0,230,575"
         type="rotate"
         attributeType="XML"
         attributeName="transform" />
      <path
         d="m 251.13121,137.79897 a 36.47382,38.865547 0 1 1 -72.94764,0 36.47382,38.865547 0 1 1 72.94764,0 z"
         transform="matrix(-0.94813844,0.31785766,-0.31785766,-0.94813844,470.67287,635.01117)"
         id="path3016"
         style="color:#000000;fill:#ffeeaa;fill-opacity:1;fill-rule:nonzero;stroke:#000000;stroke-width:4;stroke-opacity:1;marker:none;visibility:visible;display:inline;overflow:visible;filter:url(#filter3148);enable-background:accumulate" />
    </g>
    <g
       id="gear2">
      <g
         transform="matrix(2.4810758,0,0,2.4810758,346.80026,672.07776)"
         id="g3006-7"
         style="fill:#d4aa00;filter:url(#filter3070)">
        <path
           d="m 30.214,-1.241 1.107,-0.046 0.485,0.037 1.606,0.399 0,1.702 L 31.806,1.25 31.321,1.287 30.214,1.241 30.036,3.5 31.137,3.629 31.61,3.741 33.133,4.386 32.867,6.067 31.219,6.21 30.734,6.171 29.648,5.953 l -0.529,2.203 1.067,0.299 0.45,0.185 1.403,0.875 -0.526,1.619 -1.649,-0.117 -0.474,-0.114 -1.038,-0.386 -0.868,2.094 1.007,0.462 0.416,0.253 1.249,1.084 -0.772,1.517 -1.612,-0.374 -0.449,-0.187 -0.966,-0.543 -1.184,1.932 0.923,0.614 0.37,0.315 1.065,1.266 -1.001,1.377 -1.533,-0.621 -0.414,-0.255 -0.869,-0.687 -1.472,1.723 0.815,0.75 0.317,0.37 0.853,1.417 -1.203,1.203 -1.417,-0.853 -0.37,-0.317 -0.75,-0.815 -1.723,1.472 0.687,0.869 0.255,0.414 0.621,1.533 -1.377,1.001 -1.266,-1.065 -0.315,-0.37 -0.614,-0.923 -1.932,1.184 0.543,0.966 0.187,0.449 0.374,1.612 -1.517,0.772 -1.084,-1.249 -0.253,-0.416 -0.462,-1.007 -2.094,0.868 0.386,1.038 0.114,0.474 0.117,1.649 L 9.515,32.039 8.64,30.636 8.455,30.186 8.156,29.119 5.953,29.648 6.171,30.734 6.21,31.219 6.067,32.867 4.386,33.133 3.741,31.61 3.629,31.137 3.5,30.036 l -2.259,0.178 0.046,1.107 -0.037,0.485 -0.399,1.606 -1.702,0 -0.399,-1.606 -0.037,-0.485 0.046,-1.107 -2.259,-0.178 -0.129,1.101 -0.112,0.473 -0.645,1.523 -1.681,-0.266 -0.143,-1.648 0.039,-0.485 0.218,-1.086 -2.203,-0.529 -0.299,1.067 -0.185,0.45 -0.875,1.403 -1.619,-0.526 0.117,-1.649 0.114,-0.474 0.386,-1.038 -2.094,-0.868 -0.462,1.007 -0.253,0.416 -1.084,1.249 -1.517,-0.772 0.374,-1.612 0.187,-0.449 0.543,-0.966 -1.932,-1.184 -0.614,0.923 -0.315,0.37 -1.266,1.065 -1.377,-1.001 0.621,-1.533 0.255,-0.414 0.687,-0.869 -1.723,-1.472 -0.75,0.815 -0.37,0.317 -1.417,0.853 -1.203,-1.203 0.853,-1.417 0.317,-0.37 0.815,-0.75 -1.472,-1.723 -0.869,0.687 -0.414,0.255 -1.533,0.621 -1.001,-1.377 1.065,-1.266 0.37,-0.315 0.923,-0.614 -1.184,-1.932 -0.966,0.543 -0.449,0.187 -1.612,0.374 -0.772,-1.517 1.249,-1.084 0.416,-0.253 1.007,-0.462 -0.868,-2.094 -1.038,0.386 -0.474,0.114 -1.649,0.117 -0.526,-1.619 1.403,-0.875 0.45,-0.185 1.067,-0.299 -0.529,-2.203 -1.086,0.218 -0.485,0.039 -1.648,-0.143 -0.266,-1.681 1.523,-0.645 0.473,-0.112 1.101,-0.129 -0.178,-2.259 -1.107,0.046 -0.485,-0.037 -1.606,-0.399 0,-1.702 1.606,-0.399 0.485,-0.037 1.107,0.046 0.178,-2.259 -1.101,-0.129 -0.473,-0.112 -1.523,-0.645 0.266,-1.681 1.648,-0.143 0.485,0.039 1.086,0.218 0.529,-2.203 -1.067,-0.299 -0.45,-0.185 -1.403,-0.875 0.526,-1.619 1.649,0.117 0.474,0.114 1.038,0.386 0.868,-2.094 -1.007,-0.462 -0.416,-0.253 -1.249,-1.084 0.772,-1.517 1.612,0.374 0.449,0.187 0.966,0.543 1.184,-1.932 -0.923,-0.614 -0.37,-0.315 -1.065,-1.266 1.001,-1.377 1.533,0.621 0.414,0.255 0.869,0.687 1.472,-1.723 -0.815,-0.75 -0.317,-0.37 -0.853,-1.417 1.203,-1.203 1.417,0.853 0.37,0.317 0.75,0.815 1.723,-1.472 -0.687,-0.869 -0.255,-0.414 -0.621,-1.533 1.377,-1.001 1.266,1.065 0.315,0.37 0.614,0.923 1.932,-1.184 -0.543,-0.966 -0.187,-0.449 -0.374,-1.612 1.517,-0.772 1.084,1.249 0.253,0.416 0.462,1.007 2.094,-0.868 -0.386,-1.038 -0.114,-0.474 -0.117,-1.649 1.619,-0.526 0.875,1.403 0.185,0.45 0.299,1.067 2.203,-0.529 -0.218,-1.086 -0.039,-0.485 0.143,-1.648 1.681,-0.266 0.645,1.523 0.112,0.473 0.129,1.101 2.259,-0.178 -0.046,-1.107 0.037,-0.485 0.399,-1.606 1.702,0 0.399,1.606 0.037,0.485 -0.046,1.107 2.259,0.178 0.129,-1.101 0.112,-0.473 0.645,-1.523 1.681,0.266 0.143,1.648 -0.039,0.485 -0.218,1.086 2.203,0.529 0.299,-1.067 0.185,-0.45 0.875,-1.403 1.619,0.526 -0.117,1.649 -0.114,0.474 -0.386,1.038 2.094,0.868 0.462,-1.007 0.253,-0.416 1.084,-1.249 1.517,0.772 -0.374,1.612 -0.187,0.449 -0.543,0.966 1.932,1.184 0.614,-0.923 0.315,-0.37 1.266,-1.065 1.377,1.001 -0.621,1.533 -0.255,0.414 -0.687,0.869 1.723,1.472 0.75,-0.815 0.37,-0.317 1.417,-0.853 1.203,1.203 -0.853,1.417 -0.317,0.37 -0.815,0.75 1.472,1.723 0.869,-0.687 0.414,-0.255 1.533,-0.621 1.001,1.377 -1.065,1.266 -0.37,0.315 -0.923,0.614 1.184,1.932 0.966,-0.543 0.449,-0.187 1.612,-0.374 0.772,1.517 -1.249,1.084 -0.416,0.253 -1.007,0.462 0.868,2.094 1.038,-0.386 0.474,-0.114 1.649,-0.117 0.526,1.619 -1.403,0.875 -0.45,0.185 -1.067,0.299 0.529,2.203 1.086,-0.218 0.485,-0.039 1.648,0.143 0.266,1.681 -1.523,0.645 -0.473,0.112 -1.101,0.129 z"
           id="path3008-7"
           style="fill:#d4aa00;stroke:#000000" />
      </g>
      <animateTransform
         id="animateTransform110"
         repeatCount="indefinite"
         dur="5s"
         begin="1s"
         to="360,340,675"
         from="0,340,675"
         type="rotate"
         attributeType="XML"
         attributeName="transform" />
      <path
         d="m 251.13121,137.79897 a 36.47382,38.865547 0 1 1 -72.94764,0 36.47382,38.865547 0 1 1 72.94764,0 z"
         transform="translate(131.05623,534.94028)"
         id="path3016-4"
         style="color:#000000;fill:#ffeeaa;fill-opacity:1;fill-rule:nonzero;stroke:#000000;stroke-width:4;stroke-opacity:1;marker:none;visibility:visible;display:inline;overflow:visible;filter:url(#filter3096);enable-background:accumulate" />
    </g>
    <a
       xlink:href="http://www.google.com"
       target="_parent"
       id="a3347">
      <g
         id="g3341">
        <rect
           width="180.18358"
           height="88.493858"
           x="35.051067"
           y="945.93042"
           id="rect3329"
           style="color:#000000;fill:#1a1a1a;fill-opacity:1;fill-rule:nonzero;stroke:#000000;stroke-width:4.30630922;stroke-linecap:butt;stroke-linejoin:miter;stroke-miterlimit:4;stroke-opacity:1;stroke-dasharray:none;stroke-dashoffset:0;marker:none;visibility:visible;display:inline;overflow:visible;filter:url(#filter3331);enable-background:accumulate" > <set attributeName="fill" from="#1a1a1a" to="blue" 
         begin="mouseover" end="mouseout"/></rect>
        <text
           x="57.401409"
           y="1004.5483"
           id="text3313"
           xml:space="preserve"
           style="font-size:40px;font-style:normal;font-weight:normal;line-height:125%;letter-spacing:0px;word-spacing:0px;fill:#ffcc00;fill-opacity:1;stroke:none;filter:url(#filter3359);font-family:Sans"><animate
             id="animate118"
             end="1"
             begin="0"
             to="none"
             from="url(#filter3359)"
             attributeName="filter" /><tspan
             x="57.401409"
             y="1004.5483"
             id="tspan3325"
             style="font-style:normal;font-variant:normal;font-weight:bold;font-stretch:normal;fill:#ffcc00;font-family:Serif;-inkscape-font-specification:Serif Bold">About</tspan></text>
      </g>
    </a>
    <text
       x="263.40143"
       y="1005.5483"
       id="text3103"
       xml:space="preserve"
       style="font-size:40px;font-style:normal;font-weight:normal;line-height:125%;letter-spacing:0px;word-spacing:0px;fill:#ffcc00;fill-opacity:1;stroke:none;filter:url(#filter3359);font-family:Sans"><animate
         style="-inkscape-font-specification:Sans Bold;font-family:Serif;font-weight:bold;font-style:normal;font-stretch:normal;font-variant:normal"
         attributeName="filter"
         from="url(#filter3359)"
         to="none"
         begin="0"
         end="1"
         id="animate3105" /></text>
    <text
       x="478.25858"
       y="1005.7331"
       id="text3103-7"
       xml:space="preserve"
       style="font-size:40px;font-style:normal;font-weight:normal;line-height:125%;letter-spacing:0px;word-spacing:0px;fill:#ffcc00;fill-opacity:1;stroke:none;filter:url(#filter3359-6);font-family:Sans"><animate
         attributeName="filter"
         from="url(#filter3359)"
         to="none"
         begin="0"
         end="1"
         id="animate3105-0" /></text>
    <text
       x="263.40143"
       y="1005.5483"
       id="text3103-9"
       xml:space="preserve"
       style="font-size:40px;font-style:normal;font-weight:normal;line-height:125%;letter-spacing:0px;word-spacing:0px;fill:#ffcc00;fill-opacity:1;stroke:none;filter:url(#filter3359-4);font-family:Sans"><animate
         attributeName="filter"
         from="url(#filter3359)"
         to="none"
         begin="0"
         end="1"
         id="animate3105-2" /></text>
    <text
       x="263.40143"
       y="1005.5483"
       id="text3103-79"
       xml:space="preserve"
       style="font-size:40px;font-style:normal;font-weight:normal;line-height:125%;letter-spacing:0px;word-spacing:0px;fill:#ffcc00;fill-opacity:1;stroke:none;filter:url(#filter3359-1);font-family:Sans"><animate
         attributeName="filter"
         from="url(#filter3359)"
         to="none"
         begin="0"
         end="1"
         id="animate3105-8" /></text>
    <text
       x="263.40143"
       y="1005.5483"
       id="text3103-79-1"
       xml:space="preserve"
       style="font-size:40px;font-style:normal;font-weight:normal;line-height:125%;letter-spacing:0px;word-spacing:0px;fill:#ffcc00;fill-opacity:1;stroke:none;filter:url(#filter3359-1-0);font-family:Sans"><animate
         attributeName="filter"
         from="url(#filter3359)"
         to="none"
         begin="0"
         end="1"
         id="animate3105-8-9" /></text>
    <text
       x="263.40143"
       y="1005.5483"
       id="text3103-79-3"
       xml:space="preserve"
       style="font-size:40px;font-style:normal;font-weight:normal;line-height:125%;letter-spacing:0px;word-spacing:0px;fill:#ffcc00;fill-opacity:1;stroke:none;filter:url(#filter3359-1-9);font-family:Sans"><animate
         attributeName="filter"
         from="url(#filter3359)"
         to="none"
         begin="0"
         end="1"
         id="animate3105-8-1" /></text>
    <text
       x="466.25854"
       y="1005.7331"
       id="text3313-2"
       xml:space="preserve"
       style="font-size:40px;font-style:normal;font-weight:normal;line-height:125%;letter-spacing:0px;word-spacing:0px;fill:#ffcc00;fill-opacity:1;stroke:none;filter:url(#filter3359-0);font-family:Sans"><animate
         style="font-style:normal;font-variant:normal;font-weight:bold;font-stretch:normal;font-family:Serif;-inkscape-font-specification:Sans Bold"
         id="animate118-5"
         end="1"
         begin="0"
         to="none"
         from="url(#filter3359)"
         attributeName="filter" /></text>
    <text
       x="296.71753"
       y="570.42938"
       id="text3042"
       xml:space="preserve"
       style="font-size:40px;font-style:normal;font-weight:normal;line-height:125%;letter-spacing:0px;word-spacing:0px;fill:#ffcc00;fill-opacity:1;stroke:none;filter:url(#filter3222);font-family:Sans"><tspan
         x="296.71753"
         y="570.42938"
         id="tspan3044"
         style="font-size:64px;font-style:normal;font-variant:normal;font-weight:bold;font-stretch:normal;fill:#ffcc00;font-family:Serif;-inkscape-font-specification:Serif Bold">Steampunk</tspan><tspan
         x="296.71753"
         y="650.42938"
         id="tspan3188"
         style="font-size:64px;font-style:normal;font-variant:normal;font-weight:bold;font-stretch:normal;fill:#ffcc00;font-family:Serif;-inkscape-font-specification:Serif Bold">   Workshop </tspan></text>
    <text
       x="263.00943"
       y="1004.9366"
       id="text3313-4"
       xml:space="preserve"
       style="font-size:40px;font-style:normal;font-weight:normal;line-height:125%;letter-spacing:0px;word-spacing:0px;fill:#ffcc00;fill-opacity:1;stroke:none;filter:url(#filter3359-487);font-family:Sans"><animate
         style="font-style:normal;font-variant:normal;font-weight:bold;font-stretch:normal;font-family:Serif;-inkscape-font-specification:Sans Bold"
         id="animate118-9"
         end="1"
         begin="0"
         to="none"
         from="url(#filter3359)"
         attributeName="filter" /></text>
    <text
       x="467.7627"
       y="1004.9886"
       id="text3313-4-6"
       xml:space="preserve"
       style="font-size:40px;font-style:normal;font-variant:normal;font-weight:bold;font-stretch:normal;line-height:125%;letter-spacing:0px;word-spacing:0px;fill:#ffcc00;fill-opacity:1;stroke:none;filter:url(#filter3359-487-9);font-family:Serif;-inkscape-font-specification:Serif Bold"><animate
         id="animate118-9-7"
         end="1"
         begin="0"
         to="none"
         from="url(#filter3359)"
         attributeName="filter" /><tspan
         x="467.7627"
         y="1004.9886"
         id="tspan3325-0-3"
         style="font-style:normal;font-variant:normal;font-weight:bold;font-stretch:normal;fill:#ffcc00;font-family:Serif;-inkscape-font-specification:Serif Bold" /></text>
  </g>
  <a
     xlink:href="http://www.google.com"
     target="_parent"
     id="a3360">
    <g
       id="g3355">
      <rect
         width="180.18358"
         height="88.493858"
         x="233.05107"
         y="946.93042"
         transform="translate(0,-452.36218)"
         id="rect3101"
         style="color:#000000;fill:#1a1a1a;fill-opacity:1;fill-rule:nonzero;stroke:#000000;stroke-width:4.30630922;stroke-linecap:butt;stroke-linejoin:miter;stroke-miterlimit:4;stroke-opacity:1;stroke-dasharray:none;stroke-dashoffset:0;marker:none;visibility:visible;display:inline;overflow:visible;filter:url(#filter3331);enable-background:accumulate"> <set attributeName="fill" from="#1a1a1a" to="blue" 
         begin="mouseover" end="mouseout"/></rect>
      <text
         x="262"
         y="552"
         id="text3265"
         xml:space="preserve"
         style="font-size:40px;font-style:normal;font-weight:normal;line-height:125%;letter-spacing:0px;word-spacing:0px;fill:#ffb917;fill-opacity:1;stroke:none;filter:url(#filter3476);font-family:Sans"><tspan
           x="262"
           y="552"
           id="tspan3267"
           style="font-style:normal;font-variant:normal;font-weight:bold;font-stretch:normal;font-family:Serif;-inkscape-font-specification:Serif Bold">Store</tspan></text>
    </g>
  </a>
  <a
     xlink:href="http://www.google.com"
     target="_parent"
     id="a3372">
    <g
       id="g3367">
      <rect
         width="180.18358"
         height="88.493858"
         x="431.9082"
         y="947.11523"
         transform="translate(0,-452.36218)"
         id="rect3329-0"
         style="color:#000000;fill:#1a1a1a;fill-opacity:1;fill-rule:nonzero;stroke:#000000;stroke-width:4.30630922;stroke-linecap:butt;stroke-linejoin:miter;stroke-miterlimit:4;stroke-opacity:1;stroke-dasharray:none;stroke-dashoffset:0;marker:none;visibility:visible;display:inline;overflow:visible;filter:url(#filter3331-8);enable-background:accumulate"> <set attributeName="fill" from="#1a1a1a" to="blue" 
         begin="mouseover" end="mouseout"/></rect>
      <text
         x="467.24805"
         y="551.56055"
         id="text3265-3"
         xml:space="preserve"
         style="font-size:40px;font-style:normal;font-weight:normal;line-height:125%;letter-spacing:0px;word-spacing:0px;fill:#ffb917;fill-opacity:1;stroke:none;filter:url(#filter3476-9);font-family:Sans"><tspan
           x="467.24805"
           y="551.56055"
           id="tspan3267-1"
           style="font-style:normal;font-variant:normal;font-weight:bold;font-stretch:normal;font-family:Serif;-inkscape-font-specification:Serif Bold">Blog</tspan></text>
    </g>
  </a>
  <path
     d="m 251.13121,137.79897 a 36.47382,38.865547 0 1 1 -72.94764,0 36.47382,38.865547 0 1 1 72.94764,0 z"
     transform="translate(131.05623,534.94028)"
     id="path3016-4-6"
     style="color:#000000;fill:#ffeeaa;fill-opacity:1;fill-rule:nonzero;stroke:#000000;stroke-width:4;stroke-opacity:1;marker:none;visibility:visible;display:inline;overflow:visible;filter:url(#filter3096-1-2);enable-background:accumulate" />
</svg>
