<?xml version="1.0" encoding="UTF-8" standalone="no"?>

<svg xmlns="http://www.w3.org/2000/svg"
    version="2.0"
    viewBox="0 0 500 500"
    width="500"
    height="500"
    id="Starter SVG">

</svg>
